[gd_scene load_steps=2 format=2]

[ext_resource path="res://scripts/PlayerControls.gd" type="Script" id=1]

[node name="PlayerControls" type="Control"]
anchor_right = 1.0
margin_bottom = 32.0
script = ExtResource( 1 )

[node name="RestartButton" type="Button" parent="."]
anchor_left = 1.0
anchor_top = 0.5
anchor_right = 1.0
anchor_bottom = 0.5
margin_left = -99.0
margin_top = -18.0
margin_right = -42.0
margin_bottom = 2.0
rect_scale = Vector2( 1.5, 1.5 )
text = "Restart"

[node name="HitButton" type="Button" parent="."]
visible = false
anchor_top = 0.5
anchor_bottom = 0.5
margin_left = 10.0
margin_top = -18.0
margin_right = 41.0
margin_bottom = 2.0
rect_scale = Vector2( 1.5, 1.5 )
text = "Hit"

[node name="StandButton" type="Button" parent="."]
visible = false
anchor_top = 0.5
anchor_bottom = 0.5
margin_left = 74.0
margin_top = -18.0
margin_right = 121.0
margin_bottom = 2.0
rect_scale = Vector2( 1.5, 1.5 )
text = "Stand"

[connection signal="pressed" from="RestartButton" to="." method="_on_RestartButton_pressed"]
[connection signal="pressed" from="HitButton" to="." method="_on_HitButton_pressed"]
[connection signal="pressed" from="StandButton" to="." method="_on_StandButton_pressed"]
